{
	"pages": [ //pages数组中第一项表示应用启动页，参考：https://uniapp.dcloud.io/collocation/pages
            {
             "path" : "pages/search/search"
            },
            {
             "path" : "pages/user/user"
            },
            {
             "path":"pages/recommondation/list"
             },
             {
             "path":"pages/others/mylist"
             },
             {
			 "path": "pages/recommondation/range"
             },
             {
             "path" : "pages/recommondation/shake"
             },
             {
             "path":"pages/others/detail"
             },
             {
             "path" : "pages/MealList/MealList"
             },
            {
             "path" : "pages/search/searchbar",
             "style" :                                                                                    
                 {
                 "navigationBarTitleText": "",
                 "enablePullDownRefresh": false
                 }
             }
     ],
	"globalStyle": {
		"navigationBarTextStyle": "black",
		"navigationBarTitleText": "粟",
		"navigationBarBackgroundColor": "#d9cfca",
		"backgroundColor": "#F8F8F8",
        "enablePullDownRefresh":false
	},
    "condition" : { //模式配置，仅开发期间生效
        "current": 0, //当前激活的模式(list 的索引项)
        "list": [
            {
                "name": "", //模式名称
                "path": "", //启动页面，必选
                "query": "" //启动参数，在页面的onLoad函数里面得到
            }
        ]
    }
}
